#Sval	Serr	eff	eff_err	
8.39943859047e-12	2.49943859047e-12	0.00224466891134	0.000794500501282	
1.55160084045e-11	4.61713122353e-12	0.0522678185745	0.00487421670876	
2.86622152439e-11	8.52907561586e-12	0.950741839763	0.0331765521363	
5.29467735045e-11	1.57554826448e-11	1.14008097166	0.0444477183996	
9.78068443309e-11	2.91045881817e-11	1.14580467675	0.0581544809164	
1.80675387088e-10	5.37639545752e-11	1.13294797688	0.0835712823562	
3.3375573788e-10	9.93163962165e-11	1.12925170068	0.127894011821	
6.16536067048e-10	1.83463932952e-10	1.03333333333	0.152792928542	
1.05e-09	2.5e-10	0.888888888889	0.249370492305	
3.15e-09	1.85e-09	1.0	0.288675134595	
