5.000000e-13 9.594133e-14
6.955649e-13 1.075760e-13
9.676211e-13 1.222181e-13
1.346087e-12 1.431310e-13
1.872581e-12 1.763652e-13
2.605004e-12 2.170689e-13
3.623898e-12 2.582610e-13
5.041313e-12 3.013675e-13
7.013121e-12 3.477203e-13
9.756162e-12 4.089109e-13
1.357209e-11 4.876892e-13
1.888054e-11 5.404082e-13
2.626528e-11 5.858554e-13
3.653841e-11 6.501415e-13
5.082968e-11 7.269119e-13
7.071068e-11 8.015927e-13
9.836773e-11 7.972336e-13
1.368423e-10 7.853299e-13
1.903654e-10 7.826328e-13
2.648230e-10 7.877620e-13
3.684031e-10 7.620213e-13
5.124966e-10 6.827653e-13
7.129493e-10 5.650513e-13
9.918051e-10 5.114335e-13
1.379730e-09 4.440338e-13
1.919383e-09 3.763193e-13
2.670111e-09 2.940208e-13
3.714471e-09 2.171669e-13
5.167312e-09 1.761773e-13
7.188402e-09 1.305895e-13
1.000000e-08 1.302866e-13
1.000000e-08 2.181001e-13
7.188402e-09 2.246010e-13
5.167312e-09 2.810052e-13
3.714471e-09 3.352009e-13
2.670111e-09 4.099742e-13
1.919383e-09 5.038363e-13
1.379730e-09 5.857764e-13
9.918051e-10 6.635413e-13
7.129493e-10 7.234092e-13
5.124966e-10 7.987063e-13
3.684031e-10 8.483026e-13
2.648230e-10 8.775258e-13
1.903654e-10 8.877722e-13
1.368423e-10 9.036216e-13
9.836773e-11 9.243998e-13
7.071068e-11 9.377604e-13
5.082968e-11 8.784515e-13
3.653841e-11 8.184093e-13
2.626528e-11 7.776048e-13
1.888054e-11 7.440372e-13
1.357209e-11 7.114112e-13
9.756162e-12 6.647492e-13
7.013121e-12 6.264987e-13
5.041313e-12 5.627310e-13
3.623898e-12 5.143104e-13
2.605004e-12 4.546151e-13
1.872581e-12 4.087075e-13
1.346087e-12 3.812884e-13
9.676211e-13 3.615784e-13
6.955649e-13 3.474101e-13
5.000000e-13 3.372254e-13
