# S[cm^-2s^-1] dNdS[cm^2s deg^-2] -sigma +sigma
5.02049E-12 3.92542E+10 1.35001E+10 5.38583E+10
5.12637E-12 3.68793E+10 1.28893E+10 5.11403E+10
5.23448E-12 3.46481E+10 1.22803E+10 4.84457E+10
5.34487E-12 3.25519E+10 1.16745E+10 4.58016E+10
5.45760E-12 3.05825E+10 1.10753E+10 4.32315E+10
5.57269E-12 2.87323E+10 1.04855E+10 4.07555E+10
5.69022E-12 2.69940E+10 9.90820E+09 3.83896E+10
5.81023E-12 2.53609E+10 9.34578E+09 3.61456E+10
5.93276E-12 2.38265E+10 8.80044E+09 3.40300E+10
6.05788E-12 2.23850E+10 8.27425E+09 3.20444E+10
6.18564E-12 2.10308E+10 7.76928E+09 3.01848E+10
6.31609E-12 1.97584E+10 7.28677E+09 2.84424E+10
6.44930E-12 1.85630E+10 6.82718E+09 2.68054E+10
6.58531E-12 1.74400E+10 6.39147E+09 2.52640E+10
6.72419E-12 1.63849E+10 5.98105E+09 2.38134E+10
6.86600E-12 1.53936E+10 5.59666E+09 2.24493E+10
7.01081E-12 1.44623E+10 5.23817E+09 2.11664E+10
7.15866E-12 1.35873E+10 4.90546E+09 1.99591E+10
7.30964E-12 1.27653E+10 4.59832E+09 1.88214E+10
7.46379E-12 1.19930E+10 4.31634E+09 1.77477E+10
7.62120E-12 1.12674E+10 4.05878E+09 1.67333E+10
7.78193E-12 1.05857E+10 3.82359E+09 1.57748E+10
7.94605E-12 9.94530E+09 3.60756E+09 1.48691E+10
8.11363E-12 9.34361E+09 3.40644E+09 1.40138E+10
8.28474E-12 8.77833E+09 3.21495E+09 1.32065E+10
8.45946E-12 8.24724E+09 3.02981E+09 1.24451E+10
8.63787E-12 7.74828E+09 2.85003E+09 1.17273E+10
8.82004E-12 7.27951E+09 2.67495E+09 1.10514E+10
9.00605E-12 6.83911E+09 2.50417E+09 1.04163E+10
9.19599E-12 6.42534E+09 2.33756E+09 9.82045E+09
9.38993E-12 6.03661E+09 2.17521E+09 9.26244E+09
9.58796E-12 5.67140E+09 2.01772E+09 8.74048E+09
9.79017E-12 5.32828E+09 1.86648E+09 8.25254E+09
9.99664E-12 5.00592E+09 1.72330E+09 7.79570E+09
1.02075E-11 4.70306E+09 1.58943E+09 7.36762E+09
1.04227E-11 4.41853E+09 1.46629E+09 6.96691E+09
1.06425E-11 4.15121E+09 1.35580E+09 6.59167E+09
1.08670E-11 3.90006E+09 1.25924E+09 6.23964E+09
1.10962E-11 3.66411E+09 1.17720E+09 5.90869E+09
1.13302E-11 3.44243E+09 1.10950E+09 5.59678E+09
1.15691E-11 3.23417E+09 1.05521E+09 5.30185E+09
1.18131E-11 3.03850E+09 1.01269E+09 5.02198E+09
1.20623E-11 2.85467E+09 9.79749E+08 4.75617E+09
1.23167E-11 2.68197E+09 9.53710E+08 4.50437E+09
1.25764E-11 2.51971E+09 9.31707E+08 4.26595E+09
1.28416E-11 2.36727E+09 9.11577E+08 4.03973E+09
1.31125E-11 2.22405E+09 8.91814E+08 3.82514E+09
1.33890E-11 2.08949E+09 8.71627E+08 3.62229E+09
1.36714E-11 1.96308E+09 8.51090E+08 3.43119E+09
1.39597E-11 1.84431E+09 8.30441E+08 3.25176E+09
1.42541E-11 1.73273E+09 8.09996E+08 3.08370E+09
1.45547E-11 1.62790E+09 7.90057E+08 2.92652E+09
1.48617E-11 1.52942E+09 7.70898E+08 2.77967E+09
1.51751E-11 1.43689E+09 7.52796E+08 2.64233E+09
1.54951E-11 1.34995E+09 7.36074E+08 2.51353E+09
1.58219E-11 1.26828E+09 7.20863E+08 2.39236E+09
1.61556E-11 1.19980E+09 7.06734E+08 2.27789E+09
1.64963E-11 1.17004E+09 6.92911E+08 2.16979E+09
1.68442E-11 1.14102E+09 6.79067E+08 2.06834E+09
1.71995E-11 1.11272E+09 6.65304E+08 1.97372E+09
1.75622E-11 1.08512E+09 6.51684E+08 1.88595E+09
1.79326E-11 1.05820E+09 6.38252E+08 1.80487E+09
1.83108E-11 1.03195E+09 6.25053E+08 1.73011E+09
1.86969E-11 1.00636E+09 6.12126E+08 1.66122E+09
1.90913E-11 9.81396E+08 5.99506E+08 1.59770E+09
1.94939E-11 9.57053E+08 5.87217E+08 1.53893E+09
1.99050E-11 9.33314E+08 5.75273E+08 1.48419E+09
2.03248E-11 9.10164E+08 5.63675E+08 1.43275E+09
2.07534E-11 8.87588E+08 5.52409E+08 1.38400E+09
2.11911E-11 8.65572E+08 5.41459E+08 1.33761E+09
2.16380E-11 8.44102E+08 5.30846E+08 1.29336E+09
2.20944E-11 8.23165E+08 5.20618E+08 1.25106E+09
2.25603E-11 8.02747E+08 5.10808E+08 1.21046E+09
2.30361E-11 7.82835E+08 5.01431E+08 1.17132E+09
2.35219E-11 7.63417E+08 4.92485E+08 1.13354E+09
2.40180E-11 7.44481E+08 4.83952E+08 1.09709E+09
2.45245E-11 7.26015E+08 4.75795E+08 1.06200E+09
2.50418E-11 7.08007E+08 4.67963E+08 1.02839E+09
2.55699E-11 6.90445E+08 4.60411E+08 9.96351E+08
2.61091E-11 6.73319E+08 4.53100E+08 9.65838E+08
2.66598E-11 6.56618E+08 4.45983E+08 9.36787E+08
2.72220E-11 6.40331E+08 4.39008E+08 9.09121E+08
2.77961E-11 6.24448E+08 4.32112E+08 8.82806E+08
2.83823E-11 6.08959E+08 4.25236E+08 8.57798E+08
2.89809E-11 5.93854E+08 4.18368E+08 8.34019E+08
2.95921E-11 5.79124E+08 4.11513E+08 8.11377E+08
3.02162E-11 5.64760E+08 4.04675E+08 7.89759E+08
3.08535E-11 5.50751E+08 3.97867E+08 7.69069E+08
3.15041E-11 5.37090E+08 3.91132E+08 7.49239E+08
3.21686E-11 5.23768E+08 3.84536E+08 7.30249E+08
3.28470E-11 5.10776E+08 3.78122E+08 7.12095E+08
3.35397E-11 4.98107E+08 3.71909E+08 6.94717E+08
3.42471E-11 4.85752E+08 3.65902E+08 6.78032E+08
3.49693E-11 4.73703E+08 3.60108E+08 6.61971E+08
3.57068E-11 4.61953E+08 3.54546E+08 6.46477E+08
3.64598E-11 4.50495E+08 3.49208E+08 6.31482E+08
3.72288E-11 4.39321E+08 3.44072E+08 6.16911E+08
3.80139E-11 4.28424E+08 3.39110E+08 6.02683E+08
3.88156E-11 4.17797E+08 3.34279E+08 5.88717E+08
3.96342E-11 4.07434E+08 3.29537E+08 5.74890E+08
4.04701E-11 3.97328E+08 3.24845E+08 5.61191E+08
4.13236E-11 3.87472E+08 3.20160E+08 5.47604E+08
4.21951E-11 3.77861E+08 3.15424E+08 5.34011E+08
4.30850E-11 3.68489E+08 3.10562E+08 5.20356E+08
4.39936E-11 3.59349E+08 3.05508E+08 5.06620E+08
4.49214E-11 3.50435E+08 3.00211E+08 4.92765E+08
4.58688E-11 3.41743E+08 2.94651E+08 4.78704E+08
4.68362E-11 3.33266E+08 2.88836E+08 4.64367E+08
4.78239E-11 3.25000E+08 2.82782E+08 4.49752E+08
4.88325E-11 3.16938E+08 2.76521E+08 4.34908E+08
4.98624E-11 3.09077E+08 2.70102E+08 4.19925E+08
5.09140E-11 3.01411E+08 2.63575E+08 4.04892E+08
5.19877E-11 2.93934E+08 2.56957E+08 3.89861E+08
5.30841E-11 2.86644E+08 2.50238E+08 3.74845E+08
5.42037E-11 2.79534E+08 2.43423E+08 3.59843E+08
5.53468E-11 2.72600E+08 2.36527E+08 3.44916E+08
5.65141E-11 2.65838E+08 2.29575E+08 3.30164E+08
5.77059E-11 2.59244E+08 2.22571E+08 3.15674E+08
5.89229E-11 2.52814E+08 2.15509E+08 3.01536E+08
6.01656E-11 2.46543E+08 2.08400E+08 2.87840E+08
6.14345E-11 2.40428E+08 2.01263E+08 2.74664E+08
6.27301E-11 2.34464E+08 1.94117E+08 2.62071E+08
6.40530E-11 2.28648E+08 1.86987E+08 2.50095E+08
6.54039E-11 2.22977E+08 1.79894E+08 2.38799E+08
6.67832E-11 2.12853E+08 1.72852E+08 2.28148E+08
6.81917E-11 2.02575E+08 1.65881E+08 2.18058E+08
6.96298E-11 1.92794E+08 1.59001E+08 2.08511E+08
7.10983E-11 1.83485E+08 1.52237E+08 1.99448E+08
7.25977E-11 1.74626E+08 1.45618E+08 1.90815E+08
7.41288E-11 1.66194E+08 1.39169E+08 1.82563E+08
7.56922E-11 1.58169E+08 1.32909E+08 1.74648E+08
7.72885E-11 1.50532E+08 1.26860E+08 1.67036E+08
7.89185E-11 1.43264E+08 1.21044E+08 1.59695E+08
8.05828E-11 1.36346E+08 1.15480E+08 1.52600E+08
8.22823E-11 1.29763E+08 1.10174E+08 1.45726E+08
8.40176E-11 1.23497E+08 1.05122E+08 1.39061E+08
8.57895E-11 1.17534E+08 1.00312E+08 1.32600E+08
8.75988E-11 1.11859E+08 9.57341E+07 1.26359E+08
8.94462E-11 1.06458E+08 9.13751E+07 1.20360E+08
9.13326E-11 1.01318E+08 8.72201E+07 1.14608E+08
9.32588E-11 9.64256E+07 8.32552E+07 1.09093E+08
9.52256E-11 9.17697E+07 7.94706E+07 1.03813E+08
9.72338E-11 8.73387E+07 7.58563E+07 9.87670E+07
9.92845E-11 8.31216E+07 7.24021E+07 9.39538E+07
1.01378E-10 7.91081E+07 6.90964E+07 8.93771E+07
1.03516E-10 7.52884E+07 6.59297E+07 8.50321E+07
1.05700E-10 7.16531E+07 6.28970E+07 8.09104E+07
1.07929E-10 6.81933E+07 5.99943E+07 7.70028E+07
1.10205E-10 6.49006E+07 5.72178E+07 7.32994E+07
1.12529E-10 6.17669E+07 5.45636E+07 6.97884E+07
1.14902E-10 5.87845E+07 5.20275E+07 6.64572E+07
1.17326E-10 5.59461E+07 4.96062E+07 6.32930E+07
1.19800E-10 5.32448E+07 4.72967E+07 6.02834E+07
1.22326E-10 5.06739E+07 4.50963E+07 5.74171E+07
1.24906E-10 4.82271E+07 4.30022E+07 5.46838E+07
1.27540E-10 4.58985E+07 4.10114E+07 5.20739E+07
1.30230E-10 4.36823E+07 3.91184E+07 4.95791E+07
1.32977E-10 4.15731E+07 3.73153E+07 4.71926E+07
1.35781E-10 3.95658E+07 3.55960E+07 4.49086E+07
1.38645E-10 3.76553E+07 3.39558E+07 4.27232E+07
1.41569E-10 3.58372E+07 3.23908E+07 4.06360E+07
1.44554E-10 3.41068E+07 3.08981E+07 3.86475E+07
1.47603E-10 3.24600E+07 2.94742E+07 3.67565E+07
1.50716E-10 3.08926E+07 2.81159E+07 3.49610E+07
1.53894E-10 2.94010E+07 2.68205E+07 3.32578E+07
1.57140E-10 2.79814E+07 2.55853E+07 3.16422E+07
1.60454E-10 2.66303E+07 2.44074E+07 3.01082E+07
1.63838E-10 2.53445E+07 2.32844E+07 2.86511E+07
1.67293E-10 2.41207E+07 2.22135E+07 2.72666E+07
1.70821E-10 2.29561E+07 2.11917E+07 2.59515E+07
1.74424E-10 2.18476E+07 2.02164E+07 2.47031E+07
1.78103E-10 2.07927E+07 1.92852E+07 2.35184E+07
1.81859E-10 1.97888E+07 1.83960E+07 2.23943E+07
1.85694E-10 1.88333E+07 1.75473E+07 2.13280E+07
1.89610E-10 1.79239E+07 1.67371E+07 2.03159E+07
1.93609E-10 1.70585E+07 1.59640E+07 1.93541E+07
1.97692E-10 1.62348E+07 1.52261E+07 1.84384E+07
2.01861E-10 1.54509E+07 1.45215E+07 1.75647E+07
2.06119E-10 1.47049E+07 1.38486E+07 1.67297E+07
2.10466E-10 1.39948E+07 1.32057E+07 1.59316E+07
2.14904E-10 1.33191E+07 1.25911E+07 1.51690E+07
2.19437E-10 1.26760E+07 1.20032E+07 1.44408E+07
2.24064E-10 1.20639E+07 1.14409E+07 1.37456E+07
2.28790E-10 1.14814E+07 1.09031E+07 1.30819E+07
2.33615E-10 1.09271E+07 1.03890E+07 1.24491E+07
2.38542E-10 1.03994E+07 9.89778E+06 1.18472E+07
2.43573E-10 9.89731E+06 9.42853E+06 1.12758E+07
2.48709E-10 9.41943E+06 8.98046E+06 1.07338E+07
2.53955E-10 8.96461E+06 8.55285E+06 1.02203E+07
2.59310E-10 8.53176E+06 8.14496E+06 9.73432E+06
2.64779E-10 8.11980E+06 7.75578E+06 9.27491E+06
2.70363E-10 7.72774E+06 7.38418E+06 8.84074E+06
2.76065E-10 7.35461E+06 7.02924E+06 8.42995E+06
2.81887E-10 6.99950E+06 6.69025E+06 8.04033E+06
2.87832E-10 6.66153E+06 6.36651E+06 7.66977E+06
2.93903E-10 6.33988E+06 6.05729E+06 7.31684E+06
3.00101E-10 6.03376E+06 5.76195E+06 6.98054E+06
3.06430E-10 5.74242E+06 5.47996E+06 6.65984E+06
3.12892E-10 5.46515E+06 5.21079E+06 6.35391E+06
3.19491E-10 5.20127E+06 4.95394E+06 6.06201E+06
3.26229E-10 4.95013E+06 4.70898E+06 5.78350E+06
3.33109E-10 4.71111E+06 4.47555E+06 5.51783E+06
3.40134E-10 4.48364E+06 4.25333E+06 5.26447E+06
3.47308E-10 4.26714E+06 4.04196E+06 5.02287E+06
3.54632E-10 4.06111E+06 3.84106E+06 4.79257E+06
3.62111E-10 3.86502E+06 3.65023E+06 4.57313E+06
3.69748E-10 3.67840E+06 3.46911E+06 4.36404E+06
3.77546E-10 3.50079E+06 3.29732E+06 4.16461E+06
3.85508E-10 3.33175E+06 3.13447E+06 3.97416E+06
3.93639E-10 3.17088E+06 2.98019E+06 3.79226E+06
4.01940E-10 3.01777E+06 2.83411E+06 3.61872E+06
4.10417E-10 2.87206E+06 2.69578E+06 3.45343E+06
4.19073E-10 2.73339E+06 2.56460E+06 3.29618E+06
4.27911E-10 2.60141E+06 2.43990E+06 3.14670E+06
4.36935E-10 2.47580E+06 2.32127E+06 3.00464E+06
4.46150E-10 2.35625E+06 2.20852E+06 2.86962E+06
4.55559E-10 2.24248E+06 2.10138E+06 2.74128E+06
4.65167E-10 2.13421E+06 1.99960E+06 2.61922E+06
4.74977E-10 2.03116E+06 1.90292E+06 2.50298E+06
4.84994E-10 1.93308E+06 1.81111E+06 2.39215E+06
4.95223E-10 1.83974E+06 1.72395E+06 2.28630E+06
5.05667E-10 1.75091E+06 1.64121E+06 2.18506E+06
5.16331E-10 1.66637E+06 1.56262E+06 2.08805E+06
5.27220E-10 1.58591E+06 1.48795E+06 1.99500E+06
5.38339E-10 1.50934E+06 1.41692E+06 1.90573E+06
5.49693E-10 1.43646E+06 1.34928E+06 1.82010E+06
5.61286E-10 1.36710E+06 1.28477E+06 1.73799E+06
5.73123E-10 1.30109E+06 1.22317E+06 1.65933E+06
5.85210E-10 1.23827E+06 1.16430E+06 1.58402E+06
5.97552E-10 1.17848E+06 1.10802E+06 1.51196E+06
6.10154E-10 1.12157E+06 1.05423E+06 1.44309E+06
6.23022E-10 1.06742E+06 1.00287E+06 1.37737E+06
6.36161E-10 1.01588E+06 9.53913E+05 1.31468E+06
6.49578E-10 9.66828E+05 9.07237E+05 1.25478E+06
6.63277E-10 9.20145E+05 8.62684E+05 1.19755E+06
6.77265E-10 8.75716E+05 8.20123E+05 1.14288E+06
6.91549E-10 8.33433E+05 7.79535E+05 1.09066E+06
7.06133E-10 7.93191E+05 7.40935E+05 1.04077E+06
7.21025E-10 7.54892E+05 7.04261E+05 9.93160E+05
7.36231E-10 7.18442E+05 6.69464E+05 9.47742E+05
7.51758E-10 6.83752E+05 6.36502E+05 9.04459E+05
7.67613E-10 6.50737E+05 6.05327E+05 8.63263E+05
7.83801E-10 6.19317E+05 5.75883E+05 8.24098E+05
8.00331E-10 5.89413E+05 5.48102E+05 7.86897E+05
8.17210E-10 5.60954E+05 5.21900E+05 7.51576E+05
8.34445E-10 5.33868E+05 4.97180E+05 7.18040E+05
8.52043E-10 5.08091E+05 4.73831E+05 6.86179E+05
8.70012E-10 4.83558E+05 4.51737E+05 6.55876E+05
8.88361E-10 4.60209E+05 4.30779E+05 6.27007E+05
9.07096E-10 4.37988E+05 4.10839E+05 5.99447E+05
9.26226E-10 4.16840E+05 3.91808E+05 5.73076E+05
9.45760E-10 3.96713E+05 3.73587E+05 5.47791E+05
9.65706E-10 3.77558E+05 3.56101E+05 5.23527E+05
9.86072E-10 3.59328E+05 3.39293E+05 5.00251E+05
1.00687E-09 3.41978E+05 3.23124E+05 4.77951E+05
1.02810E-09 3.25465E+05 3.07581E+05 4.56623E+05
1.04979E-09 3.09750E+05 2.92670E+05 4.36265E+05
1.07192E-09 2.94794E+05 2.78392E+05 4.16869E+05
1.09453E-09 2.80560E+05 2.64734E+05 3.98394E+05
1.11761E-09 2.67013E+05 2.51673E+05 3.80768E+05
1.14118E-09 2.54121E+05 2.39192E+05 3.63939E+05
1.16525E-09 2.41851E+05 2.27258E+05 3.47865E+05
1.18983E-09 2.30173E+05 2.15844E+05 3.32507E+05
1.21492E-09 2.19059E+05 2.04927E+05 3.17830E+05
1.24054E-09 2.08482E+05 1.94492E+05 3.03803E+05
1.26670E-09 1.98415E+05 1.84527E+05 2.90399E+05
1.29342E-09 1.88835E+05 1.75027E+05 2.77592E+05
1.32070E-09 1.79717E+05 1.65988E+05 2.65353E+05
1.34855E-09 1.71040E+05 1.57405E+05 2.53655E+05
1.37699E-09 1.62781E+05 1.49269E+05 2.42469E+05
1.40603E-09 1.54921E+05 1.41566E+05 2.31770E+05
1.43568E-09 1.47441E+05 1.34278E+05 2.21525E+05
1.46596E-09 1.40322E+05 1.27386E+05 2.11694E+05
1.49688E-09 1.33546E+05 1.20870E+05 2.02242E+05
1.52845E-09 1.27098E+05 1.14705E+05 1.93135E+05
1.56068E-09 1.20961E+05 1.08866E+05 1.84345E+05
1.59360E-09 1.15121E+05 1.03329E+05 1.75854E+05
1.62720E-09 1.09562E+05 9.80682E+04 1.67649E+05
1.66152E-09 1.04272E+05 9.30607E+04 1.59727E+05
1.69656E-09 9.92371E+04 8.82840E+04 1.52087E+05
1.73234E-09 9.44455E+04 8.37267E+04 1.44734E+05
1.76888E-09 8.98852E+04 7.93875E+04 1.37676E+05
1.80618E-09 8.55451E+04 7.52652E+04 1.30928E+05
1.84427E-09 8.14146E+04 7.13577E+04 1.24509E+05
1.88317E-09 7.74835E+04 6.76617E+04 1.18434E+05
1.92288E-09 7.37423E+04 6.41727E+04 1.12714E+05
1.96344E-09 7.01816E+04 6.08842E+04 1.07350E+05
2.00485E-09 6.67930E+04 5.77881E+04 1.02341E+05
2.04713E-09 6.35679E+04 5.48743E+04 9.76682E+04
2.09030E-09 6.04985E+04 5.21310E+04 9.33036E+04
2.13438E-09 5.75774E+04 4.95447E+04 8.92124E+04
2.17940E-09 5.47973E+04 4.71001E+04 8.53586E+04
2.22536E-09 5.21514E+04 4.47818E+04 8.17061E+04
2.27229E-09 4.96333E+04 4.25796E+04 7.82181E+04
2.32021E-09 4.72368E+04 4.04878E+04 7.48592E+04
2.36915E-09 4.49559E+04 3.84991E+04 7.16059E+04
2.41911E-09 4.27853E+04 3.66067E+04 6.84465E+04
2.47013E-09 4.07194E+04 3.48045E+04 6.53738E+04
2.52222E-09 3.87533E+04 3.30878E+04 6.23859E+04
2.57542E-09 3.68821E+04 3.14521E+04 5.94839E+04
2.62973E-09 3.51012E+04 2.98932E+04 5.66720E+04
2.68519E-09 3.34064E+04 2.84072E+04 5.39567E+04
2.74182E-09 3.17934E+04 2.69907E+04 5.13463E+04
2.79965E-09 3.02582E+04 2.56408E+04 4.88508E+04
2.85869E-09 2.87972E+04 2.43556E+04 4.64805E+04
2.91898E-09 2.74068E+04 2.31336E+04 4.42445E+04
2.98054E-09 2.60834E+04 2.19738E+04 4.21430E+04
3.04340E-09 2.48240E+04 2.08752E+04 4.01690E+04
3.10758E-09 2.36254E+04 1.98365E+04 3.83141E+04
3.17312E-09 2.24846E+04 1.88560E+04 3.65685E+04
3.24004E-09 2.13990E+04 1.79315E+04 3.49205E+04
3.30837E-09 2.03657E+04 1.70602E+04 3.33575E+04
3.37814E-09 1.93824E+04 1.62378E+04 3.18715E+04
3.44939E-09 1.84465E+04 1.54591E+04 3.04593E+04
3.52213E-09 1.75558E+04 1.47190E+04 2.91172E+04
3.59641E-09 1.67082E+04 1.40129E+04 2.78410E+04
3.67226E-09 1.59014E+04 1.33365E+04 2.66261E+04
3.74971E-09 1.51336E+04 1.26857E+04 2.54675E+04
3.82879E-09 1.44029E+04 1.20585E+04 2.43602E+04
3.90954E-09 1.37074E+04 1.14548E+04 2.32989E+04
3.99199E-09 1.30456E+04 1.08746E+04 2.22802E+04
4.07618E-09 1.24157E+04 1.03180E+04 2.13021E+04
4.16214E-09 1.18162E+04 9.78447E+03 2.03631E+04
4.24992E-09 1.12457E+04 9.27387E+03 1.94625E+04
4.33955E-09 1.07027E+04 8.78612E+03 1.85996E+04
4.43107E-09 1.01859E+04 8.32120E+03 1.77736E+04
4.52452E-09 9.69407E+03 7.87907E+03 1.69838E+04
4.61994E-09 9.22599E+03 7.45961E+03 1.62295E+04
4.71737E-09 8.78052E+03 7.06253E+03 1.55098E+04
4.81686E-09 8.35655E+03 6.68736E+03 1.48235E+04
4.91845E-09 7.95306E+03 6.33339E+03 1.41695E+04
5.02217E-09 7.56905E+03 5.99995E+03 1.35461E+04
5.12809E-09 7.20358E+03 5.68639E+03 1.29519E+04
5.23624E-09 6.85576E+03 5.39177E+03 1.23850E+04
5.34667E-09 6.52473E+03 5.11490E+03 1.18438E+04
5.45943E-09 6.20969E+03 4.85438E+03 1.13264E+04
5.57457E-09 5.90985E+03 4.60950E+03 1.08315E+04
5.69213E-09 5.62450E+03 4.38007E+03 1.03585E+04
5.81218E-09 5.35292E+03 4.16567E+03 9.90650E+03
5.93476E-09 5.09446E+03 3.96556E+03 9.47483E+03
6.05992E-09 4.84847E+03 3.77875E+03 9.06267E+03
6.18772E-09 4.61437E+03 3.60404E+03 8.66933E+03
6.31822E-09 4.39156E+03 3.44006E+03 8.29421E+03
6.45147E-09 4.17952E+03 3.28529E+03 7.93658E+03
6.58753E-09 3.97771E+03 3.13789E+03 7.59564E+03
6.72645E-09 3.78565E+03 2.99646E+03 7.27053E+03
6.86831E-09 3.60286E+03 2.86027E+03 6.96033E+03
7.01316E-09 3.42890E+03 2.72871E+03 6.66404E+03
7.16107E-09 3.26333E+03 2.60132E+03 6.38059E+03
7.31209E-09 3.10576E+03 2.47776E+03 6.10903E+03
7.46630E-09 2.95580E+03 2.35786E+03 5.84854E+03
7.62376E-09 2.81308E+03 2.24160E+03 5.59836E+03
7.78455E-09 2.67725E+03 2.12906E+03 5.35782E+03
7.94872E-09 2.54798E+03 2.02051E+03 5.12663E+03
8.11636E-09 2.42496E+03 1.91635E+03 4.90490E+03
8.28753E-09 2.30787E+03 1.81698E+03 4.69270E+03
8.46231E-09 2.19643E+03 1.72276E+03 4.49001E+03
8.64078E-09 2.09038E+03 1.63393E+03 4.29670E+03
8.82301E-09 1.98945E+03 1.55059E+03 4.11242E+03
9.00908E-09 1.89339E+03 1.47265E+03 3.93647E+03
9.19908E-09 1.80196E+03 1.39983E+03 3.76776E+03
9.39309E-09 1.71496E+03 1.33162E+03 3.60499E+03
9.59118E-09 1.63215E+03 1.26709E+03 3.44664E+03
9.79346E-09 1.55334E+03 1.20488E+03 3.29103E+03
