#Sval	nspurius	
8.39943859047e-12	1.0	
1.55160084045e-11	10.0	
2.86622152439e-11	53.0	
5.29467735045e-11	10.0	
9.78068443309e-11	5.0	
1.80675387088e-10	7.0	
3.3375573788e-10	0.0	
6.16536067048e-10	0.0	
1.05e-09	0.0	
3.15e-09	0.0	
