\relax 
\providecommand\hyper@newdestlabel[2]{}
\providecommand\HyperFirstAtBeginDocument{\AtBeginDocument}
\HyperFirstAtBeginDocument{\ifx\hyper@anchor\@undefined
\global\let\oldcontentsline\contentsline
\gdef\contentsline#1#2#3#4{\oldcontentsline{#1}{#2}{#3}}
\global\let\oldnewlabel\newlabel
\gdef\newlabel#1#2{\newlabelxx{#1}#2}
\gdef\newlabelxx#1#2#3#4#5#6{\oldnewlabel{#1}{{#2}{#3}}}
\AtEndDocument{\ifx\hyper@anchor\@undefined
\let\contentsline\oldcontentsline
\let\newlabel\oldnewlabel
\fi}
\fi}
\global\let\hyper@last\relax 
\gdef\HyperFirstAtBeginDocument#1{#1}
\providecommand\HyField@AuxAddToFields[1]{}
\providecommand\HyField@AuxAddToCoFields[2]{}
\citation{Ackermann:2014usa}
\citation{Ajello:2011zi}
\citation{DiMauro:2013zfa}
\citation{DiMauro:2013xta}
\citation{DiMauro:2014wha}
\citation{DiMauro:2015tfa}
\citation{Ajello:2015mfa}
\citation{2012ApJ...755..164A}
\citation{DiMauro:2013xta}
\citation{DiMauro:2015tfa}
\citation{Ajello:2015mfa}
\citation{Lamastra:2017iyo}
\citation{Fornasa:2015qua}
\citation{TheFermi-LAT:2015ykq}
\citation{Bechtol:2015uqb}
\citation{Malyshev:2011zi}
\citation{TheFermi-LAT:2015ykq}
\citation{Lisanti:2016jub}
\citation{Zechlin:2015wdz}
\citation{Zechlin:2016pme}
\citation{TheFermi-LAT:2017pvy}
\citation{Atwood:2013dra}
\citation{Ackermann:2013fwa}
\newlabel{FirstPage}{{}{1}{}{section*.1}{}}
\@writefile{toc}{\contentsline {abstract}{ABSTRACT}{1}{section*.1}}
\@writefile{toc}{\contentsline {section}{\numberline {1}Introduction}{1}{section.1}}
\citation{2005ApJ...622..759G}
\citation{Acero:2016qlg}
\citation{FermiPass8GC}
\citation{2010ApJ...724.1044S}
\citation{Fermi-LAT:2014sfa}
\citation{Ackermann:2014usa}
\citation{TheFermi-LAT:2017pvy}
\citation{2017arXiv170709551W}
\citation{wilks1938}
\citation{Fermi-LAT:2017yoi}
\@writefile{toc}{\contentsline {section}{\numberline {2}Data selection and background models}{2}{section.2}}
\newlabel{sec:datasel}{{2}{2}{Data selection and background models}{section.2}{}}
\@writefile{toc}{\contentsline {section}{\numberline {3}Efficiency Correction Method}{2}{section.3}}
\newlabel{sec:effmethod}{{3}{2}{Efficiency Correction Method}{section.3}{}}
\@writefile{toc}{\contentsline {subsection}{\numberline {3.1}Analysis pipeline}{2}{subsection.3.1}}
\newlabel{sec:pipeff}{{3.1}{2}{Analysis pipeline}{subsection.3.1}{}}
\citation{1997ApJ...483..350D}
\citation{1998A&AS..128..397S}
\@writefile{lot}{\contentsline {table}{\numberline {1}{\ignorespaces The table reports details of the two analysis setups (efficiency correction first row and 1pPDF second row). The columns list the IRFs, the PSF types, the number of events in the ROI, the size of the PSF at 10\tmspace  +\thinmuskip {.1667em}GeV, and the flux of a source detected with one photon.}}{3}{table.1}}
\newlabel{tab:analysis}{{1}{3}{The table reports details of the two analysis setups (efficiency correction first row and 1pPDF second row). The columns list the IRFs, the PSF types, the number of events in the ROI, the size of the PSF at 10\,GeV, and the flux of a source detected with one photon}{table.1}{}}
\@writefile{lot}{\contentsline {table}{\numberline {2}{\ignorespaces Number of sources ($N_{\rm  {det}}$) and photon index ($\Gamma $) distribution for the sources detected with $TS>25$ (left block) and $TS>16$ (right block) for the 3FHL catalog, for our analysis of the real sky with the Off. and Alt. IEMs, and for the simulations. The quoted errors are RMS values of the $\Gamma $ distribution. The space for the official 3FHL catalog for $TS>16$ is empty because the catalog has been derived for sources detected with $TS>25$ only.}}{3}{table.2}}
\newlabel{tab:3FHL}{{2}{3}{Number of sources ($N_{\rm {det}}$) and photon index ($\Gamma $) distribution for the sources detected with $TS>25$ (left block) and $TS>16$ (right block) for the 3FHL catalog, for our analysis of the real sky with the Off. and Alt. IEMs, and for the simulations. The quoted errors are RMS values of the $\Gamma $ distribution. The space for the official 3FHL catalog for $TS>16$ is empty because the catalog has been derived for sources detected with $TS>25$ only}{table.2}{}}
\@writefile{toc}{\contentsline {subsection}{\numberline {3.2}Sources detected in the real sky}{3}{subsection.3.2}}
\newlabel{sec:3FHLcat}{{3.2}{3}{Sources detected in the real sky}{subsection.3.2}{}}
\@writefile{lof}{\contentsline {figure}{\numberline {1}{\ignorespaces Ratio between the photon flux of sources detected in the 3FHL catalog ($S_{\rm  {3FHL}}$) and in our analysis ($S$).}}{3}{figure.1}}
\newlabel{fig:3FHL}{{1}{3}{Ratio between the photon flux of sources detected in the 3FHL catalog ($S_{\rm {3FHL}}$) and in our analysis ($S$)}{figure.1}{}}
\@writefile{toc}{\contentsline {subsection}{\numberline {3.3}Calibrating the IEM and isotropic emission}{3}{subsection.3.3}}
\newlabel{sec:enspectrum}{{3.3}{3}{Calibrating the IEM and isotropic emission}{subsection.3.3}{}}
\citation{2010ApJ...720..435A}
\citation{TheFermi-LAT:2015ykq}
\citation{eddington1913}
\@writefile{lof}{\contentsline {figure}{\numberline {2}{\ignorespaces Top panel: Energy spectrum of $\gamma $ rays (number of photons per energy bin) in the real sky (black points) and for the best-fit scenario of our {\it  energy-spectrum simulations} (blue), together with the simulated Off. IEM (green), isotropic (red), and detected sources (brown). Bottom panel: ratio of the energy spectrum of {\it  energy-spectrum simulations} and of the real sky. }}{4}{figure.2}}
\newlabel{fig:norm}{{2}{4}{Top panel: Energy spectrum of $\gamma $ rays (number of photons per energy bin) in the real sky (black points) and for the best-fit scenario of our {\it energy-spectrum simulations} (blue), together with the simulated Off. IEM (green), isotropic (red), and detected sources (brown). Bottom panel: ratio of the energy spectrum of {\it energy-spectrum simulations} and of the real sky}{figure.2}{}}
\newlabel{eq:Isonorm}{{1}{4}{Calibrating the IEM and isotropic emission}{equation.3.1}{}}
\@writefile{toc}{\contentsline {subsection}{\numberline {3.4}Simulations to derive the efficiency}{4}{subsection.3.4}}
\newlabel{sec:sim}{{3.4}{4}{Simulations to derive the efficiency}{subsection.3.4}{}}
\newlabel{eq:BPL}{{2}{4}{Simulations to derive the efficiency}{equation.3.2}{}}
\newlabel{eq:LP}{{3}{4}{Simulations to derive the efficiency}{equation.3.3}{}}
\citation{TheFermi-LAT:2017pvy}
\@writefile{lof}{\contentsline {figure}{\numberline {3}{\ignorespaces Ratio between the true photon flux $S_\mathrm  {SIM}$ used as simulation input and the measured photon flux $S$ as reconstructed from the simulated data. Each point corresponds to an individual source with measured photon flux $S$.}}{5}{figure.3}}
\newlabel{fig:simdet}{{3}{5}{Ratio between the true photon flux $S_\mathrm {SIM}$ used as simulation input and the measured photon flux $S$ as reconstructed from the simulated data. Each point corresponds to an individual source with measured photon flux $S$}{figure.3}{}}
\@writefile{toc}{\contentsline {subsection}{\numberline {3.5}Spurious sources}{5}{subsection.3.5}}
\newlabel{sec:spurious}{{3.5}{5}{Spurious sources}{subsection.3.5}{}}
\@writefile{lof}{\contentsline {figure}{\numberline {4}{\ignorespaces Ratio between the number of spurious sources $N_{\rm  {spurious}}$ and total number of detected sources $N_{\rm  {det}}$ as a function of $S$ for the sources detected with $TS>16/20/25$ (black/blue/red data points) and $5\%$ level that represents the expected fraction of sources missed due to the choice of the $95\%$ CL for the position error (blue dashed line).}}{5}{figure.4}}
\newlabel{fig:spurious}{{4}{5}{Ratio between the number of spurious sources $N_{\rm {spurious}}$ and total number of detected sources $N_{\rm {det}}$ as a function of $S$ for the sources detected with $TS>16/20/25$ (black/blue/red data points) and $5\%$ level that represents the expected fraction of sources missed due to the choice of the $95\%$ CL for the position error (blue dashed line)}{figure.4}{}}
\@writefile{toc}{\contentsline {subsection}{\numberline {3.6}Detection efficiency}{5}{subsection.3.6}}
\newlabel{sec:eff}{{3.6}{5}{Detection efficiency}{subsection.3.6}{}}
\@writefile{lof}{\contentsline {figure}{\numberline {5}{\ignorespaces {\it  Observed efficiency} ($\omega $) for sources detected with $TS>25/20/16$ (red/cyan/black data points). The {\it  intrinsic efficiency} $\mathaccentV {tilde}07E{\omega }$ calculated with true fluxes is also displayed with red dashed line for sources detected with $TS>25$.}}{6}{figure.5}}
\newlabel{fig:eff}{{5}{6}{{\it Observed efficiency} ($\omega $) for sources detected with $TS>25/20/16$ (red/cyan/black data points). The {\it intrinsic efficiency} $\tilde {\omega }$ calculated with true fluxes is also displayed with red dashed line for sources detected with $TS>25$}{figure.5}{}}
\@writefile{toc}{\contentsline {subsection}{\numberline {3.7}Validation of the efficiency correction method}{6}{subsection.3.7}}
\newlabel{sec:valid}{{3.7}{6}{Validation of the efficiency correction method}{subsection.3.7}{}}
\@writefile{toc}{\contentsline {subsection}{\numberline {3.8}Study of possible systematics in the {\it  observed efficiency}}{6}{subsection.3.8}}
\newlabel{sec:effsys}{{3.8}{6}{Study of possible systematics in the {\it observed efficiency}}{subsection.3.8}{}}
\@writefile{toc}{\contentsline {subsection}{\numberline {3.9}$dN/dS$ derived with efficiency corrections}{6}{subsection.3.9}}
\newlabel{sec:dNdSeff}{{3.9}{6}{$dN/dS$ derived with efficiency corrections}{subsection.3.9}{}}
\@writefile{lof}{\contentsline {figure}{\numberline {6}{\ignorespaces Differential source count distribution used in our {\it  efficiency validation simulations}. Left (right) panel is for a BPL (LP) $dN/dS$. In each plot we report the input of our {\it  efficiency validation simulations} (blue dashed line), the corrected $dN/dS$ (black data), the best fit (black solid line) and $1\sigma $ (brown band) for the fit to the data. }}{7}{figure.6}}
\newlabel{fig:effsim}{{6}{7}{Differential source count distribution used in our {\it efficiency validation simulations}. Left (right) panel is for a BPL (LP) $dN/dS$. In each plot we report the input of our {\it efficiency validation simulations} (blue dashed line), the corrected $dN/dS$ (black data), the best fit (black solid line) and $1\sigma $ (brown band) for the fit to the data}{figure.6}{}}
\@writefile{lof}{\contentsline {figure}{\numberline {7}{\ignorespaces Fractional difference $(\omega -\omega _{\rm  {Test}})/ \omega $ between the efficiency found with the Off. IEM, $\omega $, and the efficiency calculated with the different test cases explained in the text (see Ref.\nobreakspace  {}\ref  {sec:effsys}), $\omega _{\rm  {Test}}$. The top (bottom) panel depicts sources detected with $TS>25$ ($TS>16$). The average of the absolute values of $(\omega -\omega _{\rm  {Test}})/ \omega $ for the different cases are displayed with yellow diamonds.}}{7}{figure.7}}
\newlabel{fig:effcheck}{{7}{7}{Fractional difference $(\omega -\omega _{\rm {Test}})/ \omega $ between the efficiency found with the Off. IEM, $\omega $, and the efficiency calculated with the different test cases explained in the text (see Ref.~\ref {sec:effsys}), $\omega _{\rm {Test}}$. The top (bottom) panel depicts sources detected with $TS>25$ ($TS>16$). The average of the absolute values of $(\omega -\omega _{\rm {Test}})/ \omega $ for the different cases are displayed with yellow diamonds}{figure.7}{}}
\citation{Zechlin:2015wdz}
\citation{Zechlin:2016pme}
\citation{Zechlin:2015wdz}
\citation{Zechlin:2016pme}
\citation{Zechlin:2015wdz}
\@writefile{lot}{\contentsline {table}{\numberline {3}{\ignorespaces Fit results for the $dN/dS$ distribution as found with the efficiency correction method. Each row represents the result of the $dN/dS$ fit for different $TS$ cuts. The columns list the best fit and statistical $1\sigma $ errors for the index above ($\gamma _2$) and below ($\gamma _1$) the flux break $S_b$. The last columns list the significance of the flux break in Gaussian sigma and the fractional flux that point sources contribute to the EGB.}}{8}{table.3}}
\newlabel{tab:dNdSfit}{{3}{8}{Fit results for the $dN/dS$ distribution as found with the efficiency correction method. Each row represents the result of the $dN/dS$ fit for different $TS$ cuts. The columns list the best fit and statistical $1\sigma $ errors for the index above ($\gamma _2$) and below ($\gamma _1$) the flux break $S_b$. The last columns list the significance of the flux break in Gaussian sigma and the fractional flux that point sources contribute to the EGB}{table.3}{}}
\@writefile{lof}{\contentsline {figure}{\numberline {8}{\ignorespaces Source count distribution of sources detected from the {\it  efficiency simulations}, compared to $dN/dS$. The data points depict the uncorrected (red stars) and the efficiency-corrected (blue diamonds) $dN/dS$ of the simulations. The $dN/dS$ of the sources detected in the real data is shown by the black circles. The shape of the simulated $dN/dS$ is shown by the black dashed line. The top (bottom) panel is for $TS>16$ ($TS>25$).}}{8}{figure.8}}
\newlabel{fig:dNdSsim}{{8}{8}{Source count distribution of sources detected from the {\it efficiency simulations}, compared to $dN/dS$. The data points depict the uncorrected (red stars) and the efficiency-corrected (blue diamonds) $dN/dS$ of the simulations. The $dN/dS$ of the sources detected in the real data is shown by the black circles. The shape of the simulated $dN/dS$ is shown by the black dashed line. The top (bottom) panel is for $TS>16$ ($TS>25$)}{figure.8}{}}
\@writefile{toc}{\contentsline {section}{\numberline {4}1pPDF Method}{8}{section.4}}
\newlabel{sec:1ppdf}{{4}{8}{1pPDF Method}{section.4}{}}
\@writefile{toc}{\contentsline {subsection}{\numberline {4.1}Setup}{8}{subsection.4.1}}
\newlabel{ssec:1ppdf_setup}{{4.1}{8}{Setup}{subsection.4.1}{}}
\@writefile{toc}{\contentsline {subsection}{\numberline {4.2}1pPDF simulation}{8}{subsection.4.2}}
\newlabel{ssec:1ppdf_sims}{{4.2}{8}{1pPDF simulation}{subsection.4.2}{}}
\@writefile{lof}{\contentsline {figure}{\numberline {9}{\ignorespaces Differential source-count distribution $dN/dS$ obtained from 7-year \textit  {Fermi}-LAT data between 10 GeV and 1 TeV. Left panel: the result obtained with the efficiency correction method is displayed. The $dN/dS$ distributions as found for $TS>16, 20, 25$ are displayed with black diamonds, blue triangles, and red stars, respectively. The best fit (blue solid line) for the case $TS>20$ and the $1\sigma $ statistical uncertainty band for the cases $TS>16, 20, 25$ are also reported. Right panel: same as in the left panel, but showing the best fit (solid black line) and $1\sigma $ statistical uncertainty band (brown band) for the result obtained with the 1pPDF method. The additional light orange band depicts an estimate of systematic uncertainties using different IEMs.}}{9}{figure.9}}
\newlabel{fig:dNdSfit}{{9}{9}{Differential source-count distribution $dN/dS$ obtained from 7-year \textit {Fermi}-LAT data between 10 GeV and 1 TeV. Left panel: the result obtained with the efficiency correction method is displayed. The $dN/dS$ distributions as found for $TS>16, 20, 25$ are displayed with black diamonds, blue triangles, and red stars, respectively. The best fit (blue solid line) for the case $TS>20$ and the $1\sigma $ statistical uncertainty band for the cases $TS>16, 20, 25$ are also reported. Right panel: same as in the left panel, but showing the best fit (solid black line) and $1\sigma $ statistical uncertainty band (brown band) for the result obtained with the 1pPDF method. The additional light orange band depicts an estimate of systematic uncertainties using different IEMs}{figure.9}{}}
\@writefile{lof}{\contentsline {figure}{\numberline {10}{\ignorespaces 1pPDF method applied to one of the simulated data sets discussed in Section\nobreakspace  {}\ref  {sec:sim}. The input $dN/dS$ distribution is given by the dashed blue line, while the realization of simulated point sources is depicted by the blue diamonds. The 1pPDF best fit is shown with the solid black line, the orange band shows the corresponding statistical uncertainty at 68\% confidence level.}}{9}{figure.10}}
\newlabel{fig:dNdS1pPDFsim}{{10}{9}{1pPDF method applied to one of the simulated data sets discussed in Section~\ref {sec:sim}. The input $dN/dS$ distribution is given by the dashed blue line, while the realization of simulated point sources is depicted by the blue diamonds. The 1pPDF best fit is shown with the solid black line, the orange band shows the corresponding statistical uncertainty at 68\% confidence level}{figure.10}{}}
\@writefile{toc}{\contentsline {subsection}{\numberline {4.3}Results for flight data}{9}{subsection.4.3}}
\newlabel{ssec:1ppdf_results}{{4.3}{9}{Results for flight data}{subsection.4.3}{}}
\@writefile{toc}{\contentsline {subsection}{\numberline {4.4}Systematic uncertainties}{9}{subsection.4.4}}
\citation{Ackermann:2014usa}
\citation{2009arXiv0912.3478C}
\citation{DiMauro:2013zfa}
\citation{Ajello:2015mfa}
\citation{2015ApJS..218...23A}
\citation{Ajello:2015mfa}
\citation{Ajello:2015mfa}
\citation{Ajello:2015mfa}
\citation{Ajello:2015mfa}
\citation{Ajello:2015mfa}
\citation{TheFermi-LAT:2017pvy}
\citation{Ackermann:2014usa}
\citation{DiMauro:2013xta}
\citation{2012ApJ...755..164A}
\citation{DiMauro:2013xta}
\citation{Gavish:2016tfl}
\citation{Gavish:2016tfl}
\newlabel{ssec:1ppdf_syst}{{4.4}{10}{Systematic uncertainties}{subsection.4.4}{}}
\@writefile{toc}{\contentsline {section}{\numberline {5}Modeling of the Blazar Population}{10}{section.5}}
\newlabel{sec:lf}{{5}{10}{Modeling of the Blazar Population}{section.5}{}}
\newlabel{eq:sed}{{6}{10}{Modeling of the Blazar Population}{equation.5.6}{}}
\@writefile{toc}{\contentsline {section}{\numberline {6}Conclusions}{10}{section.6}}
\newlabel{sec:conclusion}{{6}{10}{Conclusions}{section.6}{}}
\citation{Zechlin:2015wdz}
\citation{Zechlin:2016pme}
\@writefile{lof}{\contentsline {figure}{\numberline {11}{\ignorespaces Same as in Fig.\nobreakspace  {}\ref  {fig:dNdSfit} with the addition of the prediction from blazars with the LDDE (top panel) and PLE (bottom panel). The data derived with efficiency correction method include either statistical and systematic uncertainties.}}{11}{figure.11}}
\newlabel{fig:dNdSpred}{{11}{11}{Same as in Fig.~\ref {fig:dNdSfit} with the addition of the prediction from blazars with the LDDE (top panel) and PLE (bottom panel). The data derived with efficiency correction method include either statistical and systematic uncertainties}{figure.11}{}}
\newlabel{APP:1PPDFCUTS}{{A}{11}{1pPDF Method with Relaxed Data Selection Cuts}{appendix.A}{}}
\@writefile{toc}{\contentsline {section}{\numberline {A}1pPDF Method with Relaxed Data Selection Cuts}{11}{appendix.A}}
\@writefile{toc}{\contentsline {subsection}{\numberline {A.1}Event selection}{11}{subsection.A.1}}
\bibdata{paperNotes,paper}
\bibcite{2010ApJ...720..435A}{{1}{2010}{{{Abdo} {et~al.}}}{{{Abdo}, {Ackermann}, {Ajello}, {Antolini}, {et~al.}}}}
\bibcite{2015ApJS..218...23A}{{2}{2015}{{{Acero} {et~al.}}}{{{Acero}, {Ackermann}, {Ajello}, {et~al.}}}}
\bibcite{Acero:2016qlg}{{3}{2016}{{Acero {et~al.}}}{{}}}
\bibcite{FermiPass8GC}{{4}{2017}{{{Ackermann} {et~al.}}}{{{Ackermann}, {Ajello}, {Albert}, {et~al.}}}}
\bibcite{2012ApJ...755..164A}{{5}{2012}{{{Ackermann} {et~al.}}}{{{Ackermann}, {Ajello}, {Allafort}, {et~al.}}}}
\bibcite{Ackermann:2013fwa}{{6}{2013}{{Ackermann {et~al.}}}{{}}}
\bibcite{Fermi-LAT:2014sfa}{{7}{2014}{{Ackermann {et~al.}}}{{}}}
\bibcite{Ackermann:2014usa}{{8}{2015}{{Ackermann {et~al.}}}{{}}}
\bibcite{TheFermi-LAT:2015ykq}{{9}{2016}{{Ackermann {et~al.}}}{{}}}
\bibcite{Ajello:2015mfa}{{10}{2015}{{Ajello {et~al.}}}{{Ajello, Gasparrini, S\'anchez-Conde, Zaharijas, Gustafsson, {et~al.}}}}
\bibcite{Ajello:2011zi}{{11}{2012}{{Ajello {et~al.}}}{{Ajello, Shaw, Romani, Dermer, Costamante, {et~al.}}}}
\bibcite{TheFermi-LAT:2017pvy}{{12}{2017{a}}{{Ajello {et~al.}}}{{}}}
\bibcite{Fermi-LAT:2017yoi}{{13}{2017{b}}{{Ajello {et~al.}}}{{}}}
\bibcite{Atwood:2013dra}{{14}{2013}{{Atwood {et~al.}}}{{Atwood, Baldini, Bregeon, Bruel, Chekhtman, {et~al.}}}}
\bibcite{Bechtol:2015uqb}{{15}{2017}{{Bechtol {et~al.}}}{{Bechtol, Ahlers, Di~Mauro, Ajello, \& Vandenbroucke}}}
\bibcite{2009arXiv0912.3478C}{{16}{2009}{{{Casandjian} {et~al.}}}{{{Casandjian}, {Grenier}, \& {for the Fermi Large Area Telescope Collaboration}}}}
\bibcite{1997ApJ...483..350D}{{17}{1997}{{{Damiani} {et~al.}}}{{{Damiani}, {Maggio}, {Micela}, \& {Sciortino}}}}
\bibcite{DiMauro:2013xta}{{18}{2014{a}}{{Di~Mauro {et~al.}}}{{Di~Mauro, Calore, Donato, Ajello, \& Latronico}}}
\@writefile{lof}{\contentsline {figure}{\numberline {12}{\ignorespaces Differential source-count distribution $dN/dS$ obtained with the 1pPDF method, using 7-year \textit  {Fermi}-LAT data with {\tt  SOURCE} (left) and {\tt  CLEAN} (right) event selection cuts. Notation and data points are the same as in the right panel of Figure\nobreakspace  {}\ref  {fig:dNdSfit}.}}{12}{figure.12}}
\newlabel{fig:dNdS_1pPDF_xchk}{{12}{12}{Differential source-count distribution $dN/dS$ obtained with the 1pPDF method, using 7-year \textit {Fermi}-LAT data with {\tt SOURCE} (left) and {\tt CLEAN} (right) event selection cuts. Notation and data points are the same as in the right panel of Figure~\ref {fig:dNdSfit}}{figure.12}{}}
\@writefile{lof}{\contentsline {figure}{\numberline {13}{\ignorespaces Differential source-count distribution $dN/dS$ obtained with the 1pPDF method, using 7-year \textit  {Fermi}-LAT data with {\tt  UCV} event selection cuts. Same as the right panel of Figure\nobreakspace  {}\ref  {fig:dNdSfit}, but using pixel resolution order\nobreakspace  {}8.}}{12}{figure.13}}
\newlabel{fig:1pPDF_hp8}{{13}{12}{Differential source-count distribution $dN/dS$ obtained with the 1pPDF method, using 7-year \textit {Fermi}-LAT data with {\tt UCV} event selection cuts. Same as the right panel of Figure~\ref {fig:dNdSfit}, but using pixel resolution order~8}{figure.13}{}}
\@writefile{toc}{\contentsline {subsection}{\numberline {A.2}Pixel size}{12}{subsection.A.2}}
\bibcite{DiMauro:2014wha}{{19}{2014{b}}{{Di~Mauro {et~al.}}}{{Di~Mauro, Cuoco, Donato, \& Siegal-Gaskins}}}
\bibcite{DiMauro:2015tfa}{{20}{2015}{{Di~Mauro \& Donato}}{{}}}
\bibcite{DiMauro:2013zfa}{{21}{2014{c}}{{Di~Mauro {et~al.}}}{{Di~Mauro, Donato, Lamanna, Sanchez, \& Serpico}}}
\bibcite{eddington1913}{{22}{1913}{{Eddington}}{{}}}
\bibcite{Fornasa:2015qua}{{23}{2015}{{Fornasa \& Sánchez-Conde}}{{}}}
\bibcite{Gavish:2016tfl}{{24}{2016}{{Gavish \& Eichler}}{{}}}
\bibcite{2005ApJ...622..759G}{{25}{2005}{{{G{\'o}rski} {et~al.}}}{{{G{\'o}rski}, {Hivon}, {Banday}, {Wandelt}, {Hansen}, {Reinecke}, \& {Bartelmann}}}}
\bibcite{Lamastra:2017iyo}{{26}{2017}{{Lamastra {et~al.}}}{{Lamastra, Menci, Fiore, Antonelli, Colafrancesco, Guetta, \& Stamerra}}}
\bibcite{Lisanti:2016jub}{{27}{2016}{{Lisanti {et~al.}}}{{Lisanti, Mishra-Sharma, Necib, \& Safdi}}}
\bibcite{Malyshev:2011zi}{{28}{2011}{{Malyshev \& Hogg}}{{}}}
\bibcite{1998A&AS..128..397S}{{29}{1998}{{{Starck} \& {Pierre}}}{{}}}
\bibcite{2010ApJ...724.1044S}{{30}{2010}{{{Su} {et~al.}}}{{{Su}, {Slatyer}, \& {Finkbeiner}}}}
\bibcite{wilks1938}{{31}{1938}{{Wilks}}{{}}}
\bibcite{2017arXiv170709551W}{{32}{2017}{{{Wood} {et~al.}}}{{{Wood}, {Caputo}, {Charles}, {Di Mauro}, {Magill}, \& {Jeremy Perkins for the Fermi-LAT Collaboration}}}}
\bibcite{Zechlin:2016pme}{{33}{2016{a}}{{Zechlin {et~al.}}}{{Zechlin, Cuoco, Donato, Fornengo, \& Regis}}}
\bibcite{Zechlin:2015wdz}{{34}{2016{b}}{{Zechlin {et~al.}}}{{Zechlin, Cuoco, Donato, Fornengo, \& Vittino}}}
\bibstyle{aa}
\newlabel{LastPage}{{}{13}{}{}{}}
